Bomb/simulation/qsim/Bombeador.msim.vcd
$comment
	File created using the following command:
		vcd file Bombeador.msim.vcd -direction
$end
$date
	Tue Jun 05 00:17:16 2018
$end
$version
	ModelSim Version 10.1d
$end
$timescale
	1ps
$end
$scope module Bombeador_vlg_vec_tst $end
$var reg 1 ! blue $end
$var reg 1 " clock_ini $end
$var reg 1 # ENTER $end
$var reg 1 $ green $end
$var reg 1 % orange $end
$var reg 1 & purple $end
$var reg 1 ' red $end
$var wire 1 ( clock_end $end
$var wire 1 ) sampler $end
$scope module i1 $end
$var wire 1 * gnd $end
$var wire 1 + vcc $end
$var wire 1 , unknown $end
$var tri1 1 - devclrn $end
$var tri1 1 . devpor $end
$var tri1 1 / devoe $end
$var wire 1 0 Divisor|count3[3]~17_combout $end
$var wire 1 1 Divisor|count3[7]~25_combout $end
$var wire 1 2 Divisor|count3[8]~28 $end
$var wire 1 3 Divisor|count3[9]~29_combout $end
$var wire 1 4 Divisor|Add1~0_combout $end
$var wire 1 5 Divisor|Add1~6_combout $end
$var wire 1 6 Divisor|LessThan1~1_combout $end
$var wire 1 7 Divisor|count2~6_combout $end
$var wire 1 8 Divisor|count2~17_combout $end
$var wire 1 9 ENTER~combout $end
$var wire 1 : orange~combout $end
$var wire 1 ; ENTER~clkctrl_outclk $end
$var wire 1 < clock_ini~combout $end
$var wire 1 = clock_ini~clkctrl_outclk $end
$var wire 1 > green~combout $end
$var wire 1 ? purple~combout $end
$var wire 1 @ blue~combout $end
$var wire 1 A red~combout $end
$var wire 1 B process_0~0_combout $end
$var wire 1 C sel_fios~1_combout $end
$var wire 1 D Divisor|count0[2]~10_combout $end
$var wire 1 E sel_fios~0_combout $end
$var wire 1 F Divisor|count0~9_combout $end
$var wire 1 G Divisor|Add2~1 $end
$var wire 1 H Divisor|Add2~3_cout $end
$var wire 1 I Divisor|Add2~4_combout $end
$var wire 1 J Divisor|Add1~2_combout $end
$var wire 1 K Divisor|Equal0~0_combout $end
$var wire 1 L Divisor|count0[2]~11 $end
$var wire 1 M Divisor|count0[3]~12_combout $end
$var wire 1 N Divisor|Add1~1 $end
$var wire 1 O Divisor|Add1~3_combout $end
$var wire 1 P Divisor|Add2~5 $end
$var wire 1 Q Divisor|Add2~6_combout $end
$var wire 1 R Divisor|Add1~5_combout $end
$var wire 1 S Divisor|count0[3]~13 $end
$var wire 1 T Divisor|count0[4]~14_combout $end
$var wire 1 U Divisor|Add2~7 $end
$var wire 1 V Divisor|Add2~8_combout $end
$var wire 1 W Divisor|Add1~8_combout $end
$var wire 1 X Divisor|count0[4]~15 $end
$var wire 1 Y Divisor|count0[5]~16_combout $end
$var wire 1 Z Divisor|Add2~9 $end
$var wire 1 [ Divisor|Add2~10_combout $end
$var wire 1 \ Divisor|Add1~4 $end
$var wire 1 ] Divisor|Add1~7 $end
$var wire 1 ^ Divisor|Add1~9_combout $end
$var wire 1 _ Divisor|Add1~11_combout $end
$var wire 1 ` Divisor|count0[5]~17 $end
$var wire 1 a Divisor|count0[6]~18_combout $end
$var wire 1 b Divisor|Add1~10 $end
$var wire 1 c Divisor|Add1~12_combout $end
$var wire 1 d Divisor|Add2~11 $end
$var wire 1 e Divisor|Add2~12_combout $end
$var wire 1 f Divisor|Add1~14_combout $end
$var wire 1 g Divisor|count0[6]~19 $end
$var wire 1 h Divisor|count0[7]~21 $end
$var wire 1 i Divisor|count0[8]~22_combout $end
$var wire 1 j Divisor|Add1~13 $end
$var wire 1 k Divisor|Add1~16 $end
$var wire 1 l Divisor|Add1~18_combout $end
$var wire 1 m Divisor|count0[7]~20_combout $end
$var wire 1 n Divisor|Add1~15_combout $end
$var wire 1 o Divisor|Add2~13 $end
$var wire 1 p Divisor|Add2~14_combout $end
$var wire 1 q Divisor|Add1~17_combout $end
$var wire 1 r Divisor|Add2~15 $end
$var wire 1 s Divisor|Add2~16_combout $end
$var wire 1 t Divisor|Add1~20_combout $end
$var wire 1 u Divisor|LessThan0~1_combout $end
$var wire 1 v Divisor|count0[8]~23 $end
$var wire 1 w Divisor|count0[9]~24_combout $end
$var wire 1 x Divisor|Add1~19 $end
$var wire 1 y Divisor|Add1~21_combout $end
$var wire 1 z Divisor|Add2~17 $end
$var wire 1 { Divisor|Add2~18_combout $end
$var wire 1 | Divisor|Add1~23_combout $end
$var wire 1 } Divisor|LessThan0~3_combout $end
$var wire 1 ~ Divisor|Add2~0_combout $end
$var wire 1 !! Divisor|count0~26_combout $end
$var wire 1 "! Divisor|count0[0]~8_combout $end
$var wire 1 #! ~GND~combout $end
$var wire 1 $! Divisor|LessThan0~0_combout $end
$var wire 1 %! Divisor|LessThan0~2_combout $end
$var wire 1 &! Divisor|count1[0]~35_combout $end
$var wire 1 '! Divisor|count1~4_combout $end
$var wire 1 (! Divisor|count1~5_combout $end
$var wire 1 )! Divisor|count1~6_combout $end
$var wire 1 *! Divisor|count1~3_combout $end
$var wire 1 +! Divisor|count1~8_combout $end
$var wire 1 ,! Divisor|count1~7_combout $end
$var wire 1 -! Divisor|count1~9_combout $end
$var wire 1 .! Divisor|count1~10_combout $end
$var wire 1 /! Divisor|count1~11_combout $end
$var wire 1 0! Divisor|count1~12_combout $end
$var wire 1 1! Divisor|count1~13_combout $end
$var wire 1 2! Divisor|count1~14_combout $end
$var wire 1 3! Divisor|count1~15_combout $end
$var wire 1 4! Divisor|count1~16_combout $end
$var wire 1 5! Divisor|count1[9]~18_cout $end
$var wire 1 6! Divisor|count1[9]~20_cout $end
$var wire 1 7! Divisor|count1[9]~22_cout $end
$var wire 1 8! Divisor|count1[9]~24_cout $end
$var wire 1 9! Divisor|count1[9]~26_cout $end
$var wire 1 :! Divisor|count1[9]~28_cout $end
$var wire 1 ;! Divisor|count1[9]~30_cout $end
$var wire 1 <! Divisor|count1[9]~32_cout $end
$var wire 1 =! Divisor|count1[9]~33_combout $end
$var wire 1 >! Divisor|LessThan1~0_combout $end
$var wire 1 ?! Divisor|LessThan1~2_combout $end
$var wire 1 @! Divisor|count2~2_combout $end
$var wire 1 A! Divisor|count2~0_combout $end
$var wire 1 B! Divisor|count2~1_combout $end
$var wire 1 C! Divisor|count2~7_combout $end
$var wire 1 D! Divisor|count2~8_combout $end
$var wire 1 E! Divisor|count2~10_combout $end
$var wire 1 F! Divisor|count2~11_combout $end
$var wire 1 G! Divisor|count2~12_combout $end
$var wire 1 H! Divisor|count2~14_combout $end
$var wire 1 I! Divisor|count2~15_combout $end
$var wire 1 J! Divisor|count2~16_combout $end
$var wire 1 K! Divisor|count2~13_combout $end
$var wire 1 L! Divisor|count2~9_combout $end
$var wire 1 M! Divisor|LessThan2~1_combout $end
$var wire 1 N! Divisor|count2~3_combout $end
$var wire 1 O! Divisor|count2~4_combout $end
$var wire 1 P! Divisor|count2~5_combout $end
$var wire 1 Q! Divisor|LessThan2~0_combout $end
$var wire 1 R! Divisor|LessThan2~2_combout $end
$var wire 1 S! Divisor|count3[0]~10_combout $end
$var wire 1 T! Divisor|count3[9]~12_combout $end
$var wire 1 U! Divisor|count3[0]~11 $end
$var wire 1 V! Divisor|count3[1]~13_combout $end
$var wire 1 W! Divisor|count3[1]~14 $end
$var wire 1 X! Divisor|count3[2]~16 $end
$var wire 1 Y! Divisor|count3[3]~18 $end
$var wire 1 Z! Divisor|count3[4]~19_combout $end
$var wire 1 [! Divisor|count3[4]~20 $end
$var wire 1 \! Divisor|count3[5]~22 $end
$var wire 1 ]! Divisor|count3[6]~23_combout $end
$var wire 1 ^! Divisor|count3[6]~24 $end
$var wire 1 _! Divisor|count3[7]~26 $end
$var wire 1 `! Divisor|count3[8]~27_combout $end
$var wire 1 a! Divisor|count3[2]~15_combout $end
$var wire 1 b! Divisor|LessThan3~0_combout $end
$var wire 1 c! Divisor|count3[5]~21_combout $end
$var wire 1 d! Divisor|LessThan3~1_combout $end
$var wire 1 e! Divisor|LessThan3~2_combout $end
$var wire 1 f! Divisor|D~2_combout $end
$var wire 1 g! Divisor|D~3_combout $end
$var wire 1 h! Divisor|D~regout $end
$var wire 1 i! Divisor|COUT~feeder_combout $end
$var wire 1 j! Divisor|COUT~regout $end
$var wire 1 k! Divisor|count3 [9] $end
$var wire 1 l! Divisor|count3 [8] $end
$var wire 1 m! Divisor|count3 [7] $end
$var wire 1 n! Divisor|count3 [6] $end
$var wire 1 o! Divisor|count3 [5] $end
$var wire 1 p! Divisor|count3 [4] $end
$var wire 1 q! Divisor|count3 [3] $end
$var wire 1 r! Divisor|count3 [2] $end
$var wire 1 s! Divisor|count3 [1] $end
$var wire 1 t! Divisor|count3 [0] $end
$var wire 1 u! Divisor|count2 [9] $end
$var wire 1 v! Divisor|count2 [8] $end
$var wire 1 w! Divisor|count2 [7] $end
$var wire 1 x! Divisor|count2 [6] $end
$var wire 1 y! Divisor|count2 [5] $end
$var wire 1 z! Divisor|count2 [4] $end
$var wire 1 {! Divisor|count2 [3] $end
$var wire 1 |! Divisor|count2 [2] $end
$var wire 1 }! Divisor|count2 [1] $end
$var wire 1 ~! Divisor|count2 [0] $end
$var wire 1 !" Divisor|count0 [9] $end
$var wire 1 "" Divisor|count0 [8] $end
$var wire 1 #" Divisor|count0 [7] $end
$var wire 1 $" Divisor|count0 [6] $end
$var wire 1 %" Divisor|count0 [5] $end
$var wire 1 &" Divisor|count0 [4] $end
$var wire 1 '" Divisor|count0 [3] $end
$var wire 1 (" Divisor|count0 [2] $end
$var wire 1 )" Divisor|count0 [1] $end
$var wire 1 *" Divisor|count0 [0] $end
$var wire 1 +" Divisor|count1 [9] $end
$var wire 1 ," Divisor|count1 [8] $end
$var wire 1 -" Divisor|count1 [7] $end
$var wire 1 ." Divisor|count1 [6] $end
$var wire 1 /" Divisor|count1 [5] $end
$var wire 1 0" Divisor|count1 [4] $end
$var wire 1 1" Divisor|count1 [3] $end
$var wire 1 2" Divisor|count1 [2] $end
$var wire 1 3" Divisor|count1 [1] $end
$var wire 1 4" Divisor|count1 [0] $end
$var wire 1 5" sel_fios [1] $end
$var wire 1 6" sel_fios [0] $end
$upscope $end
$upscope $end
$enddefinitions $end
#0
$dumpvars
x!
0"
x#
x$
x%
x&
x'
0(
x)
0*
1+
x,
1-
1.
1/
00
01
02
03
14
05
06
07
08
x9
x:
x;
0<
0=
x>
x?
x@
xA
xB
xC
0D
xE
0F
0G
1H
0I
0J
1K
0L
0M
0N
0O
0P
0Q
0R
1S
0T
1U
0V
0W
0X
0Y
0Z
0[
1\
0]
0^
0_
1`
0a
1b
0c
1d
0e
0f
0g
1h
0i
0j
1k
0l
0m
0n
0o
0p
0q
1r
0s
0t
0u
0v
0w
0x
0y
0z
0{
0|
0}
1~
1!!
1"!
0#!
0$!
0%!
0&!
0'!
0(!
0)!
0*!
0+!
0,!
0-!
0.!
0/!
00!
01!
02!
03!
04!
05!
16!
07!
18!
09!
1:!
0;!
1<!
0=!
0>!
0?!
0@!
1A!
0B!
0C!
0D!
0E!
0F!
0G!
0H!
0I!
0J!
0K!
0L!
0M!
0N!
0O!
0P!
0Q!
1R!
1S!
0T!
0U!
0V!
1W!
0X!
1Y!
0Z!
0[!
1\!
0]!
0^!
1_!
0`!
0a!
0b!
0c!
0d!
0e!
0f!
0g!
0h!
0i!
0j!
0t!
0s!
0r!
0q!
0p!
0o!
0n!
0m!
0l!
0k!
0~!
0}!
0|!
0{!
0z!
0y!
0x!
0w!
0v!
0u!
0*"
0)"
0("
0'"
0&"
0%"
0$"
0#"
0""
0!"
04"
03"
02"
01"
00"
0/"
0."
0-"
0,"
0+"
06"
05"
$end
#5000
1"
1<
1=
0)
1*"
1%!
1}
1G
0~
1&!
0A!
0!!
0"!
#10000
0"
0<
0=
1)
#15000
1"
1<
1=
0)
14"
0*"
1>!
1'!
0&!
0%!
0}
0G
1~
1?!
1(!
0'!
1A!
1!!
1B!
1*!
0(!
1"!
#20000
0"
0<
0=
1)
#25000
1"
1<
1=
0)
1~!
04"
1*"
1Q!
1N!
0B!
0>!
1%!
1}
1G
0~
0R!
0?!
0*!
1&!
0A!
0!!
1B!
0N!
0"!
#30000
0"
0<
0=
1)
#35000
1"
1<
1=
0)
14"
0*"
1>!
1'!
0&!
0%!
0}
0G
1~
1?!
1(!
1@!
0'!
1A!
1!!
0B!
0@!
1*!
0(!
1"!
1N!
#40000
0"
0<
0=
1)
#45000
1"
1<
1=
0)
1}!
0~!
04"
1*"
1B!
0>!
1%!
1}
1G
0~
0?!
0*!
1&!
0A!
0!!
0B!
0"!
#50000
0"
0<
0=
1)
#55000
1"
1<
1=
0)
14"
0*"
1>!
1'!
0&!
0%!
0}
0G
1~
1?!
1(!
1@!
0'!
1A!
1!!
1B!
0@!
1*!
0N!
0(!
1"!
1N!
#60000
0"
0<
0=
1)
#65000
1"
1<
1=
0)
1~!
04"
1*"
1O!
0N!
0B!
0>!
1%!
1}
1G
0~
1P!
0?!
0*!
1&!
0A!
0!!
1B!
0O!
1N!
0"!
0P!
#70000
0"
0<
0=
1)
#75000
1"
1<
1=
0)
14"
0*"
1>!
1'!
0&!
0%!
0}
0G
1~
1?!
1(!
1@!
0'!
1A!
1!!
0B!
0@!
1*!
0N!
0(!
1"!
1O!
1P!
#80000
0"
0<
0=
1)
#85000
1"
1<
1=
0)
1|!
0}!
0~!
04"
1*"
1B!
0>!
1%!
1}
1G
0~
0?!
0*!
1&!
0A!
0!!
0B!
0"!
#90000
0"
0<
0=
1)
#95000
1"
1<
1=
0)
14"
0*"
1>!
1'!
0&!
0%!
0}
0G
1~
1?!
1(!
1@!
0'!
1A!
1!!
1B!
0@!
1*!
0P!
0(!
1"!
1P!
#100000
0"
0<
0=
1)
#105000
1"
1<
1=
0)
1~!
04"
1*"
1N!
0B!
0>!
1%!
1}
1G
0~
0?!
0*!
1&!
0A!
0!!
1B!
0N!
0"!
#110000
0"
0<
0=
1)
#115000
1"
1<
1=
0)
14"
0*"
1>!
1'!
0&!
0%!
0}
0G
1~
1?!
1(!
1@!
0'!
1A!
1!!
0B!
0@!
1*!
0P!
0(!
1"!
1P!
1N!
#120000
0"
0<
0=
1)
#125000
1"
1<
1=
0)
1}!
0~!
04"
1*"
17
1B!
0>!
1%!
1}
1G
0~
0?!
0*!
1&!
0A!
0!!
0B!
0"!
#130000
0"
0<
0=
1)
#135000
1"
1<
1=
0)
14"
0*"
1>!
1'!
0&!
0%!
0}
0G
1~
1?!
1(!
1@!
0'!
1A!
1!!
1B!
0@!
1*!
0P!
0N!
0(!
1"!
1P!
1N!
#140000
0"
0<
0=
1)
#145000
1"
1<
1=
0)
1~!
04"
1*"
0O!
0N!
1C!
0B!
0>!
1%!
1}
1G
0~
0P!
1D!
0?!
0C!
0*!
1&!
0A!
0!!
1B!
0D!
1O!
1N!
0"!
1P!
#150000
0"
0<
0=
1)
#155000
1"
1<
1=
0)
14"
0*"
1>!
1'!
0&!
0%!
0}
0G
1~
1?!
1(!
1@!
0'!
1A!
1!!
1C!
0B!
0@!
1*!
0P!
0N!
0(!
1"!
1D!
1P!
0O!
0P!
#160000
0"
0<
0=
1)
#165000
1"
1<
1=
0)
0|!
0}!
1{!
0~!
04"
1*"
07
1L!
0D!
0C!
1B!
0>!
1%!
1}
1G
0~
0L!
1D!
0?!
0*!
1&!
0A!
0!!
0B!
0"!
#170000
0"
0<
0=
1)
#175000
1"
1<
1=
0)
14"
0*"
1>!
1'!
0&!
0%!
0}
0G
1~
1?!
1(!
1@!
0'!
1A!
1!!
1B!
0@!
1*!
0D!
0(!
1"!
1D!
#180000
0"
0<
0=
1)
#185000
1"
1<
1=
0)
1~!
04"
1*"
1N!
0B!
0>!
1%!
1}
1G
0~
0?!
0*!
1&!
0A!
0!!
1B!
0N!
0"!
#190000
0"
0<
0=
1)
#195000
1"
1<
1=
0)
14"
0*"
1>!
1'!
0&!
0%!
0}
0G
1~
1?!
1(!
1@!
0'!
1A!
1!!
0B!
0@!
1*!
0D!
0(!
1"!
1N!
1D!
#200000
0"
0<
0=
1)
#205000
1"
1<
1=
0)
1}!
0~!
04"
1*"
1B!
0>!
1%!
1}
1G
0~
0?!
0*!
1&!
0A!
0!!
0B!
0"!
#210000
0"
0<
0=
1)
#215000
1"
1<
1=
0)
14"
0*"
1>!
1'!
0&!
0%!
0}
0G
1~
1?!
1(!
1@!
0'!
1A!
1!!
1B!
0@!
1*!
0N!
0D!
0(!
1"!
1N!
1D!
#220000
0"
0<
0=
1)
#225000
1"
1<
1=
0)
1~!
04"
1*"
1O!
0N!
0B!
0>!
1%!
1}
1G
0~
1P!
0?!
0*!
1&!
0A!
0!!
1B!
0O!
1N!
0"!
0P!
#230000
0"
0<
0=
1)
#235000
1"
1<
1=
0)
14"
0*"
1>!
1'!
0&!
0%!
0}
0G
1~
1?!
1(!
1@!
0'!
1A!
1!!
0B!
0@!
1*!
0N!
0D!
0(!
1"!
1D!
1O!
1P!
#240000
0"
0<
0=
1)
#245000
1"
1<
1=
0)
1|!
0}!
0~!
04"
1*"
1B!
0>!
1%!
1}
1G
0~
0?!
0*!
1&!
0A!
0!!
0B!
0"!
#250000
0"
0<
0=
1)
#255000
1"
1<
1=
0)
14"
0*"
1>!
1'!
0&!
0%!
0}
0G
1~
1?!
1(!
1@!
0'!
1A!
1!!
1B!
0@!
1*!
0P!
0D!
0(!
1"!
1P!
1D!
#260000
0"
0<
0=
1)
#265000
1"
1<
1=
0)
1~!
04"
1*"
1N!
0B!
0>!
1%!
1}
1G
0~
0?!
0*!
1&!
0A!
0!!
1B!
0N!
0"!
#270000
0"
0<
0=
1)
#275000
1"
1<
1=
0)
14"
0*"
1>!
1'!
0&!
0%!
0}
0G
1~
1?!
1(!
1@!
0'!
1A!
1!!
0B!
0@!
1*!
0P!
0D!
0(!
1"!
1P!
1N!
1D!
#280000
0"
0<
0=
1)
#285000
1"
1<
1=
0)
1}!
0~!
04"
1*"
17
1B!
0>!
1%!
1}
1G
0~
0?!
0*!
1&!
0A!
0!!
0B!
0"!
#290000
0"
0<
0=
1)
#295000
1"
1<
1=
0)
14"
0*"
1>!
1'!
0&!
0%!
0}
0G
1~
1?!
1(!
1@!
0'!
1A!
1!!
1B!
0@!
1*!
0P!
0N!
0D!
0(!
1"!
1P!
1N!
1D!
#300000
0"
0<
0=
1)
#305000
1"
1<
1=
0)
1~!
04"
1*"
0O!
0N!
1C!
0B!
0>!
1%!
1}
1G
0~
0P!
1L!
0D!
0?!
0C!
0*!
1&!
0A!
0!!
1B!
0L!
1D!
1O!
1N!
0"!
1P!
#310000
0"
0<
0=
1)
#315000
1"
1<
1=
0)
14"
0*"
1>!
1'!
0&!
0%!
0}
0G
1~
1?!
1(!
1@!
0'!
1A!
1!!
1C!
0B!
0@!
1*!
0P!
0N!
0D!
0(!
1"!
1L!
1P!
0O!
0P!
#320000
0"
0<
0=
1)
#325000
1"
1<
1=
0)
0|!
0}!
1z!
0{!
0~!
04"
1*"
0Q!
07
1M!
1D!
0C!
1B!
0>!
1%!
1}
1G
0~
0D!
0?!
0*!
1&!
0A!
0!!
0B!
0"!
#330000
0"
0<
0=
1)
#335000
1"
1<
1=
0)
14"
0*"
1>!
1'!
0&!
0%!
0}
0G
1~
1?!
1(!
1@!
0'!
1A!
1!!
1B!
0@!
1*!
0L!
0(!
1"!
1L!
#340000
0"
0<
0=
1)
#345000
1"
1<
1=
0)
1~!
04"
1*"
1Q!
1N!
0B!
0>!
1%!
1}
1G
0~
0?!
0*!
1&!
0A!
0!!
1B!
0N!
0"!
#350000
0"
0<
0=
1)
#355000
1"
1<
1=
0)
14"
0*"
1>!
1'!
0&!
0%!
0}
0G
1~
1?!
1(!
1@!
0'!
1A!
1!!
0B!
0@!
1*!
0L!
0(!
1"!
1N!
1L!
#360000
0"
0<
0=
1)
#365000
1"
1<
1=
0)
1}!
0~!
04"
1*"
1B!
0>!
1%!
1}
1G
0~
0?!
0*!
1&!
0A!
0!!
0B!
0"!
#370000
0"
0<
0=
1)
#375000
1"
1<
1=
0)
14"
0*"
1>!
1'!
0&!
0%!
0}
0G
1~
1?!
1(!
1@!
0'!
1A!
1!!
1B!
0@!
1*!
0N!
0L!
0(!
1"!
1N!
1L!
#380000
0"
0<
0=
1)
#385000
1"
1<
1=
0)
1~!
04"
1*"
1O!
0N!
0B!
0>!
1%!
1}
1G
0~
1P!
0?!
0*!
1&!
0A!
0!!
1B!
0O!
1N!
0"!
0P!
#390000
0"
0<
0=
1)
#395000
1"
1<
1=
0)
14"
0*"
1>!
1'!
0&!
0%!
0}
0G
1~
1?!
1(!
1@!
0'!
1A!
1!!
0B!
0@!
1*!
0N!
0L!
0(!
1"!
1L!
1O!
1P!
#400000
0"
0<
0=
1)
#405000
1"
1<
1=
0)
1|!
0}!
0~!
04"
1*"
1B!
0>!
1%!
1}
1G
0~
0?!
0*!
1&!
0A!
0!!
0B!
0"!
#410000
0"
0<
0=
1)
#415000
1"
1<
1=
0)
14"
0*"
1>!
1'!
0&!
0%!
0}
0G
1~
1?!
1(!
1@!
0'!
1A!
1!!
1B!
0@!
1*!
0P!
0L!
0(!
1"!
1P!
1L!
#420000
0"
0<
0=
1)
#425000
1"
1<
1=
0)
1~!
04"
1*"
1N!
0B!
0>!
1%!
1}
1G
0~
0?!
0*!
1&!
0A!
0!!
1B!
0N!
0"!
#430000
0"
0<
0=
1)
#435000
1"
1<
1=
0)
14"
0*"
1>!
1'!
0&!
0%!
0}
0G
1~
1?!
1(!
1@!
0'!
1A!
1!!
0B!
0@!
1*!
0P!
0L!
0(!
1"!
1P!
1N!
1L!
#440000
0"
0<
0=
1)
#445000
1"
1<
1=
0)
1}!
0~!
04"
1*"
17
1B!
0>!
1%!
1}
1G
0~
0?!
0*!
1&!
0A!
0!!
0B!
0"!
#450000
0"
0<
0=
1)
#455000
1"
1<
1=
0)
14"
0*"
1>!
1'!
0&!
0%!
0}
0G
1~
1?!
1(!
1@!
0'!
1A!
1!!
1B!
0@!
1*!
0P!
0N!
0L!
0(!
1"!
1P!
1N!
1L!
#460000
0"
0<
0=
1)
#465000
1"
1<
1=
0)
1~!
04"
1*"
0O!
0N!
1C!
0B!
0>!
1%!
1}
1G
0~
0P!
1D!
0?!
0C!
0*!
1&!
0A!
0!!
1B!
0D!
1O!
1N!
0"!
1P!
#470000
0"
0<
0=
1)
#475000
1"
1<
1=
0)
14"
0*"
1>!
1'!
0&!
0%!
0}
0G
1~
1?!
1(!
1@!
0'!
1A!
1!!
1C!
0B!
0@!
1*!
0P!
0N!
0L!
0(!
1"!
1L!
1D!
1P!
0O!
0P!
#480000
0"
0<
0=
1)
#485000
1"
1<
1=
0)
0|!
0}!
1{!
0~!
04"
1*"
07
0L!
1E!
0D!
0C!
1B!
0>!
1%!
1}
1G
0~
1F!
1L!
0E!
1D!
0?!
0*!
1&!
0A!
0!!
0F!
0B!
0"!
#490000
0"
0<
0=
1)
#495000
1"
1<
1=
0)
14"
0*"
1>!
1'!
0&!
0%!
0}
0G
1~
1?!
1(!
1@!
0'!
1A!
1!!
1B!
0@!
1*!
0L!
0D!
0(!
1"!
1L!
1D!
#500000
0"
0<
0=
1)
#505000
1"
1<
1=
0)
1~!
04"
1*"
1N!
0B!
0>!
1%!
1}
1G
0~
0?!
0*!
1&!
0A!
0!!
1B!
0N!
0"!
#510000
0"
0<
0=
1)
#515000
1"
1<
1=
0)
14"
0*"
1>!
1'!
0&!
0%!
0}
0G
1~
1?!
1(!
1@!
0'!
1A!
1!!
0B!
0@!
1*!
0L!
0D!
0(!
1"!
1N!
1L!
1D!
#520000
0"
0<
0=
1)
#525000
1"
1<
1=
0)
1}!
0~!
04"
1*"
1B!
0>!
1%!
1}
1G
0~
0?!
0*!
1&!
0A!
0!!
0B!
0"!
#530000
0"
0<
0=
1)
#535000
1"
1<
1=
0)
14"
0*"
1>!
1'!
0&!
0%!
0}
0G
1~
1?!
1(!
1@!
0'!
1A!
1!!
1B!
0@!
1*!
0N!
0L!
0D!
0(!
1"!
1N!
1L!
1D!
#540000
0"
0<
0=
1)
#545000
1"
1<
1=
0)
1~!
04"
1*"
1O!
0N!
0B!
0>!
1%!
1}
1G
0~
1P!
0?!
0*!
1&!
0A!
0!!
1B!
0O!
1N!
0"!
0P!
#550000
0"
0<
0=
1)
#555000
1"
1<
1=
0)
14"
0*"
1>!
1'!
0&!
0%!
0}
0G
1~
1?!
1(!
1@!
0'!
1A!
1!!
0B!
0@!
1*!
0N!
0L!
0D!
0(!
1"!
1L!
1D!
1O!
1P!
#560000
0"
0<
0=
1)
#565000
1"
1<
1=
0)
1|!
0}!
0~!
04"
1*"
1B!
0>!
1%!
1}
1G
0~
0?!
0*!
1&!
0A!
0!!
0B!
0"!
#570000
0"
0<
0=
1)
#575000
1"
1<
1=
0)
14"
0*"
1>!
1'!
0&!
0%!
0}
0G
1~
1?!
1(!
1@!
0'!
1A!
1!!
1B!
0@!
1*!
0P!
0L!
0D!
0(!
1"!
1P!
1L!
1D!
#580000
0"
0<
0=
1)
#585000
1"
1<
1=
0)
1~!
04"
1*"
1N!
0B!
0>!
1%!
1}
1G
0~
0?!
0*!
1&!
0A!
0!!
1B!
0N!
0"!
#590000
0"
0<
0=
1)
#595000
1"
1<
1=
0)
14"
0*"
1>!
1'!
0&!
0%!
0}
0G
1~
1?!
1(!
1@!
0'!
1A!
1!!
0B!
0@!
1*!
0P!
0L!
0D!
0(!
1"!
1P!
1N!
1L!
1D!
#600000
0"
0<
0=
1)
#605000
1"
1<
1=
0)
1}!
0~!
04"
1*"
17
1B!
0>!
1%!
1}
1G
0~
0?!
0*!
1&!
0A!
0!!
0B!
0"!
#610000
0"
0<
0=
1)
#615000
1"
1<
1=
0)
14"
0*"
1>!
1'!
0&!
0%!
0}
0G
1~
1?!
1(!
1@!
0'!
1A!
1!!
1B!
0@!
1*!
0P!
0N!
0L!
0D!
0(!
1"!
1P!
1N!
1L!
1D!
#620000
0"
0<
0=
1)
#625000
1"
1<
1=
0)
1~!
04"
1*"
0O!
0N!
1C!
0B!
0>!
1%!
1}
1G
0~
0P!
0L!
1E!
0D!
0?!
0C!
0*!
1&!
0A!
0!!
1F!
1B!
1L!
0E!
1D!
1O!
1N!
0"!
0F!
1P!
#630000
0"
0<
0=
1)
#635000
1"
1<
1=
0)
14"
0*"
1>!
1'!
0&!
0%!
0}
0G
1~
1?!
1(!
1@!
0'!
1A!
1!!
1C!
0B!
0@!
1*!
0P!
0N!
0L!
0D!
0(!
1"!
1E!
1P!
0O!
1F!
0P!
#640000
0"
0<
0=
1)
#645000
1"
1<
1=
0)
0|!
0}!
0z!
1y!
0{!
0~!
04"
1*"
0Q!
07
1D!
0C!
1B!
0>!
1%!
1}
1G
0~
0D!
0?!
0*!
1&!
0A!
0!!
0B!
0"!
#650000
0"
0<
0=
1)
#655000
1"
1<
1=
0)
14"
0*"
1>!
1'!
0&!
0%!
0}
0G
1~
1?!
1(!
1@!
0'!
1A!
1!!
1B!
0@!
1*!
0F!
0(!
1"!
1F!
#660000
0"
0<
0=
1)
#665000
1"
1<
1=
0)
1~!
04"
1*"
1Q!
1N!
0B!
0>!
1%!
1}
1G
0~
0?!
0*!
1&!
0A!
0!!
1B!
0N!
0"!
#670000
0"
0<
0=
1)
#675000
1"
1<
1=
0)
14"
0*"
1>!
1'!
0&!
0%!
0}
0G
1~
1?!
1(!
1@!
0'!
1A!
1!!
0B!
0@!
1*!
0F!
0(!
1"!
1N!
1F!
#680000
0"
0<
0=
1)
#685000
1"
1<
1=
0)
1}!
0~!
04"
1*"
1B!
0>!
1%!
1}
1G
0~
0?!
0*!
1&!
0A!
0!!
0B!
0"!
#690000
0"
0<
0=
1)
#695000
1"
1<
1=
0)
14"
0*"
1>!
1'!
0&!
0%!
0}
0G
1~
1?!
1(!
1@!
0'!
1A!
1!!
1B!
0@!
1*!
0N!
0F!
0(!
1"!
1N!
1F!
#700000
0"
0<
0=
1)
#705000
1"
1<
1=
0)
1~!
04"
1*"
1O!
0N!
0B!
0>!
1%!
1}
1G
0~
1P!
0?!
0*!
1&!
0A!
0!!
1B!
0O!
1N!
0"!
0P!
#710000
0"
0<
0=
1)
#715000
1"
1<
1=
0)
14"
0*"
1>!
1'!
0&!
0%!
0}
0G
1~
1?!
1(!
1@!
0'!
1A!
1!!
0B!
0@!
1*!
0N!
0F!
0(!
1"!
1F!
1O!
1P!
#720000
0"
0<
0=
1)
#725000
1"
1<
1=
0)
1|!
0}!
0~!
04"
1*"
1B!
0>!
1%!
1}
1G
0~
0?!
0*!
1&!
0A!
0!!
0B!
0"!
#730000
0"
0<
0=
1)
#735000
1"
1<
1=
0)
14"
0*"
1>!
1'!
0&!
0%!
0}
0G
1~
1?!
1(!
1@!
0'!
1A!
1!!
1B!
0@!
1*!
0P!
0F!
0(!
1"!
1P!
1F!
#740000
0"
0<
0=
1)
#745000
1"
1<
1=
0)
1~!
04"
1*"
1N!
0B!
0>!
1%!
1}
1G
0~
0?!
0*!
1&!
0A!
0!!
1B!
0N!
0"!
#750000
0"
0<
0=
1)
#755000
1"
1<
1=
0)
14"
0*"
1>!
1'!
0&!
0%!
0}
0G
1~
1?!
1(!
1@!
0'!
1A!
1!!
0B!
0@!
1*!
0P!
0F!
0(!
1"!
1P!
1N!
1F!
#760000
0"
0<
0=
1)
#765000
1"
1<
1=
0)
1}!
0~!
04"
1*"
17
1B!
0>!
1%!
1}
1G
0~
0?!
0*!
1&!
0A!
0!!
0B!
0"!
#770000
0"
0<
0=
1)
#775000
1"
1<
1=
0)
14"
0*"
1>!
1'!
0&!
0%!
0}
0G
1~
1?!
1(!
1@!
0'!
1A!
1!!
1B!
0@!
1*!
0P!
0N!
0F!
0(!
1"!
1P!
1N!
1F!
#780000
0"
0<
0=
1)
